{
    "metadata": {
        "showAll": false,
        "lastPage": 2,
        "pageSize": 2,
        "page": 2,
        "totalElements": 3
    },
    "recordsets": [
        {
            "name": "cam.edgedns.zone",
            "type": "A",
            "ttl": 300,
            "rdata": [
                "192.0.2.2"
            ]
        }
    ]
}